// Evol scripts.
// Author:
//    Reid
// Description:
//    Animated hammock at the mid level of the ship.

002-1,32,27,0	script	#hammock1	NPC_LEFT_HAMMOCK,1,0,{

OnTouch:
    hamTouchLeft;

OnUnTouch:
    hamUnTouch;

OnTimer5440:
    hamTimerLeft;
}

002-1,32,25,0	script	#hammock2	NPC_LEFT_HAMMOCK,1,0,{

OnTouch:
    hamTouchLeft;

OnUnTouch:
    hamUnTouch;

OnTimer5440:
    hamTimerLeft;
}

002-1,37,25,0	script	#hammock3	NPC_RIGHT_HAMMOCK,1,0,{

OnTouch:
    hamTouchLeft;

OnUnTouch:
    hamUnTouch;

OnTimer5440:
    hamTimerLeft;
}

002-1,37,27,0	script	#hammock4	NPC_RIGHT_HAMMOCK,1,0,{

OnTouch:
    hamTouchLeft;

OnUnTouch:
    hamUnTouch;

OnTimer5440:
    hamTimerLeft;
}

002-1,37,29,0	script	#hammock5	NPC_RIGHT_HAMMOCK,1,0,{

OnTouch:
    hamTouchLeft;

OnUnTouch:
    hamUnTouch;

OnTimer5440:
    hamTimerLeft;
}

002-1,37,34,0	script	#hammock6	NPC_RIGHT_HAMMOCK,1,0,{

OnTouch:
    hamTouchLeft;

OnUnTouch:
    hamUnTouch;

OnTimer5440:
    hamTimerLeft;
}

002-1,37,36,0	script	#hammock7	NPC_RIGHT_HAMMOCK,1,0,{

OnTouch:
    hamTouchLeft;

OnUnTouch:
    hamUnTouch;

OnTimer5440:
    hamTimerLeft;
}

002-1,37,38,0	script	#hammock8	NPC_RIGHT_HAMMOCK,1,0,{

OnTouch:
    hamTouchLeft;

OnUnTouch:
    hamUnTouch;

OnTimer5440:
    hamTimerLeft;
}

002-1,32,40,0	script	#hammock9	NPC_LEFT_HAMMOCK,1,0,{

OnTouch:
    hamTouchLeft;

OnUnTouch:
    hamUnTouch;

OnTimer5440:
    hamTimerLeft;
}

002-1,37,40,0	script	#hammock10	NPC_RIGHT_HAMMOCK,1,0,{

OnTouch:
    hamTouchLeft;

OnUnTouch:
    hamUnTouch;

OnTimer5440:
    hamTimerLeft;
}
