000-0-0 1
000-0 2
000-1 3
001-1 4
001-2 5
001-4 6
001-5 7
002-1 8
002-2 9
002-3 10
002-4 11
002-5 12
003-0-1 13
003-0 14
003-1-2 15
003-1-3 16
003-1 17
003-10 18
003-13 19
003-2 20
003-3 21
003-4-1 22
003-4 23
003-5 24
003-6 25
003-7 26
003-8 27
004-1 28
004-2-1 29
004-2 30
005-1 31
005-2-1 32
005-2 33
005-3 34
005-4 35
005-5 36
005-6 37
005-7 38
007-1 39
009-1 40
010-1-1 41
010-1 42
010-2 43
011-1 44
011-2 45
boss 46
botcheck 47
sec_pri 48
soren-2 49
soren 50
test 51
testbg 52
