// This file is generated automatically. All manually added changes will be removed when running the Converter.
// Map 010-2: Desert Mountains warps
010-2,36,103,0	warp	#010-2_36_103	0,0,010-1-1,32,25
010-2,39,98,0	warp	#010-2_39_98	0,0,004-1,33,110
010-2,59,81,0	warp	#010-2_59_81	0,0,004-1,33,110
010-2,64,75,0	warp	#010-2_64_75	0,0,004-1,33,110
010-2,94,125,0	warp	#010-2_94_125	0,0,010-1,124,25
010-2,108,129,0	warp	#010-2_108_129	0,0,010-1-1,170,50
010-2,88,113,0	warp	#010-2_88_113	0,0,010-1-1,41,38
010-2,127,122,0	warp	#010-2_127_122	0,0,004-1,33,110
010-2,136,115,0	warp	#010-2_136_115	0,0,004-1,33,110
010-2,133,114,0	warp	#010-2_133_114	0,0,004-1,33,110
010-2,114,103,0	warp	#010-2_114_103	0,0,010-1-1,112,45
010-2,123,99,0	warp	#010-2_123_99	0,0,010-1-1,119,35
010-2,158,121,0	warp	#010-2_158_121	0,0,010-1-1,31,114
010-2,165,114,0	warp	#010-2_165_114	0,0,004-1,33,110
010-2,144,111,0	warp	#010-2_144_111	0,0,004-1,33,110
010-2,157,102,0	warp	#010-2_157_102	0,0,004-1,33,110
010-2,192,110,0	warp	#010-2_192_110	0,0,004-1,33,110
010-2,194,109,0	warp	#010-2_194_109	0,0,004-1,33,110
010-2,162,68,0	warp	#010-2_162_68	0,0,010-1-1,47,84
010-2,175,80,0	warp	#010-2_175_80	0,0,010-1-1,168,24
010-2,187,66,0	warp	#010-2_187_66	0,0,004-1,33,110
010-2,196,57,0	warp	#010-2_196_57	0,0,004-1,33,110
010-2,253,95,0	warp	#010-2_253_95	0,0,004-1,33,110
010-2,252,91,0	warp	#010-2_252_91	0,0,004-1,33,110
010-2,239,63,0	warp	#010-2_239_63	0,0,004-1,33,110
010-2,212,70,0	warp	#010-2_212_70	0,0,004-1,33,110
010-2,209,41,0	warp	#010-2_209_41	0,0,004-1,33,110
010-2,243,41,0	warp	#010-2_243_41	0,0,004-1,33,110
010-2,171,18,0	warp	#010-2_171_18	0,0,009-1,56,105
